<?xml version="1.0" encoding="UTF-8"?>
<svg width="575px" height="574px" viewBox="0 0 575 574" version="1.1" xmlns="http://www.w3.org/2000/svg" xmlns:xlink="http://www.w3.org/1999/xlink">
    <!-- Generator: Sketch 56.3 (81716) - https://sketch.com -->
    <title>ilustra-fc_02-circulo</title>
    <desc>Created with Sketch.</desc>
    <defs>
        <linearGradient x1="76.1371432%" y1="65.0688363%" x2="52.9376238%" y2="-33.9504076%" id="linearGradient-1">
            <stop stop-color="#EDF1F7" offset="0%"></stop>
            <stop stop-color="#9CB3DF" offset="100%"></stop>
        </linearGradient>
        <linearGradient x1="54.7273263%" y1="96.9983627%" x2="66.5379166%" y2="-18.521103%" id="linearGradient-2">
            <stop stop-color="#EDF1F7" offset="0%"></stop>
            <stop stop-color="#9CB3DF" offset="100%"></stop>
        </linearGradient>
        <linearGradient x1="56.7805758%" y1="-11.1156596%" x2="34.8057637%" y2="81.1909175%" id="linearGradient-3">
            <stop stop-color="#9CB3DF" offset="0%"></stop>
            <stop stop-color="#EDF1F7" offset="100%"></stop>
        </linearGradient>
    </defs>
    <g id="Symbols" stroke="none" stroke-width="1" fill="none" fill-rule="evenodd">
        <g id="ilustra-fc_02-circulo" transform="translate(5.000000, 5.000000)">
            <ellipse id="Oval" stroke="url(#linearGradient-1)" stroke-width="21" opacity="0.121140253" cx="286.5" cy="260" rx="119.5" ry="119"></ellipse>
            <ellipse id="Oval" stroke="url(#linearGradient-2)" stroke-width="9" opacity="0.0785202753" cx="282.5" cy="282" rx="282.5" ry="282"></ellipse>
            <ellipse id="Oval" stroke="url(#linearGradient-3)" stroke-width="13" opacity="0.121140253" cx="282.5" cy="282" rx="216.5" ry="216"></ellipse>
        </g>
    </g>
</svg>